blinker (1.3)
chardet (2.3.0)
cloud-init (17.1)
command-not-found (0.3)
configobj (5.0.6)
cryptography (1.2.3)
Django (1.11)
django-appconf (1.0.2)
django-defender (0.5.1)
django-ipware (2.0.1)
gunicorn (19.7.1)
hiredis (0.2.0)
idna (2.0)
Jinja2 (2.8)
jsonpatch (1.10)
jsonpointer (1.9)
language-selector (0.1)
MarkupSafe (0.23)
mockredispy (2.9.3)
mysqlclient (1.3.12)
oauthlib (1.0.3)
pip (9.0.1)
prettytable (0.7.2)
psycopg2 (2.7.3.2)
pyasn1 (0.1.9)
pycurl (7.43.0)
pygobject (3.20.0)
PyJWT (1.3.0)
pyserial (3.0.1)
python-apt (1.1.0b1)
python-debian (0.1.27)
python-systemd (231)
pytz (2017.3)
PyYAML (3.11)
redis (2.10.6)
requests (2.9.1)
rmate (1.0.3)
setproctitle (1.1.10)
setuptools (20.7.0)
six (1.10.0)
ssh-import-id (5.5)
ufw (0.35)
unattended-upgrades (0.1)
urllib3 (1.13.1)
virtualenv (15.1.0)
wheel (0.29.0)
